{
    "entryPoints": [
        "src/adjacenceMod.ts",
        "src/graphe.ts",
        "src/interface.ts",
        "src/kwimMod.ts",
        "src/mods.ts",
        "src/save.ts",
        "src/shortcuts.ts",
        "src/embedEditMod.ts",
        "src/index.ts",
        "src/kwimModTest.ts",
        "src/modExample.ts",
        "src/parcoursLargeurMod.ts",
        "src/scripting.ts"
    ],
    "out": "docs",
    "theme": "minimal",
    "tsconfig": "tsconfig.json"
}